Experiment 1 Analysis
…
d$vignetteAnswer[d$answerOrder == "B"] <- recode(d$vignetteAnswer[d$answerOrder == "B"], "1 = -3;
                                                                                          2 = -2;
                                                                                          3 = -1;
                                                                                          4 = 0;
                                                                                          5 = 1;
                                                                                          6 = 2;
                                                                                          7 = 3")

#reset order of vignette factor from G1 to L12 for easy graphing
d$vignette <- factor(d$vignette, levels = c(sprintf("G%d", seq(1:12)), sprintf("L%d", seq(1:12))))

d

## # A tibble: 1,207 x 12
##    subject     condition vignetteType vignetteNumber answerOrder vignette
##    <fct>       <fct>     <fct>        <fct>          <fct>       <fct>   
##  1 o2lc35yzcpg L7A       L            7              A           L7      
##  2 7emt35yz8gy L11B      L            11             B           L11     
##  3 go6e35yzl0i L4B       L            4              B           L4      
##  4 pawc35yzk9o G10A      G            10             A           G10     
##  5 rs7g35yz9py L12B      L            12             B           L12     
##  6 7nql35yzygy L1A       L            1              A           L1      
##  7 kx9135yz6xs L11B      L            11             B           L11     
##  8 dp5j35yz3yf G5B       G            5              B           G5      
##  9 21ls35yzp09 L6B       L            6              B           L6      
## 10 in3g35yzivh G8A       G            8              A           G8      
## # ... with 1,197 more rows, and 6 more variables: dummyVignetteAnswer <dbl>,
## #   vignetteAnswer <dbl>, gender <fct>, age <dbl>, postQuestion1 <fct>,
## #   postQuestion2 <chr>
…
# first remove andy's testing data point
andy.testing <- grep("amy", d$postQuestion2)
d_andyremoved <- d[-andy.testing,]

#check whether observations fail instruction checks
instr_fail <- d_andyremoved$postQuestion1 == "incorrect" | d_andyremoved$dummyVignetteAnswer <= 4

#remove data from main dataset and save for possible later analysis (was a particular question more confusing etc?)
d_removed <- d_andyremoved[instr_fail,]
d_pass <- d_andyremoved[!instr_fail,]

#inspect responses of those we removed.
d_removed

## # A tibble: 76 x 12
##    subject     condition vignetteType vignetteNumber answerOrder vignette
##    <fct>       <fct>     <fct>        <fct>          <fct>       <fct>   
##  1 5fut35yz7wk L12A      L            12             A           L12     
##  2 nqn635yza15 L9A       L            9              A           L9      
##  3 eif335yzg4v G8A       G            8              A           G8      
##  4 yfuw35yz7np G7A       G            7              A           G7      
##  5 enz935yze1l L11A      L            11             A           L11     
##  6 0yyy35yzo0v G10B      G            10             B           G10     
##  7 2utk35yz3l9 L12B      L            12             B           L12     
##  8 nha635yzuxd L11A      L            11             A           L11     
##  9 bukf35yzagj G6A       G            6              A           G6      
## 10 prhp35yz2ce G3B       G            3              B           G3      
## # ... with 66 more rows, and 6 more variables: dummyVignetteAnswer <dbl>,
## #   vignetteAnswer <dbl>, gender <fct>, age <dbl>, postQuestion1 <fct>,
## #   postQuestion2 <chr>
…
