Exp2-Analysis
…
#load previous data`
load("../Experiment 1/exp1d.Rda")

# get means for each vignette
meanAAdata <- exp1d %>% group_by(vignetteType, vignetteNumber) %>% summarise(meanAA = mean(vignetteAnswer))
meanAAdata

## # A tibble: 24 x 3
## # Groups:   vignetteType [2]
##    vignetteType vignetteNumber  meanAA
##    <fct>        <fct>            <dbl>
##  1 L            7               0.512 
##  2 L            11             -0.466 
##  3 L            4               0.610 
##  4 L            10             -0.245 
##  5 L            12              0.0222
##  6 L            1               0.75  
##  7 L            5               0.559 
##  8 L            6               0.388 
##  9 L            8               0.490 
## 10 L            3               0.75  
## # ... with 14 more rows
…
## [1] 11.39552

Get final dataset for regression models.

## summarise data to get mean percent difference of priors and meanCR
d <- d_pass %>% group_by(vignetteType, vignetteNumber, vignette) %>% summarise(meanpercdiff = mean(fav_minus_unfav),
                                                                                meanCR = mean(vignetteConfidence))
d <- left_join(d, meanAAdata, by = c("vignetteType", "vignetteNumber"))

#reorder
d <- d[c(1, 3:6)]
d

## # A tibble: 24 x 5
## # Groups:   vignetteType [2]
##    vignetteType vignette meanpercdiff meanCR meanAA
##    <fct>        <fct>           <dbl>  <dbl>  <dbl>
##  1 G            G8              0.222   1.89  0.635
##  2 G            G1            -52.8     2.17  1.69 
##  3 G            G3             10.8     2.53  0.429
##  4 G            G4              8.52    2.22  0.705
##  5 G            G7             -1.52    2     0.439
##  6 G            G9              4.88    2.15  0.543
##  7 G            G10             0.970   2.12  0.776
##  8 G            G5             15.7     2.04  1.10 
##  9 G            G2            -13.6     2.16  0.769
## 10 G            G11             3.79    2.25  0.755
## # ... with 14 more rows
…
library(broom)
augment(mod)

## # A tibble: 24 x 9
##    meanAA meanpercdiff vignetteType .fitted  .resid   .hat .sigma  .cooksd
##     <dbl>        <dbl> <fct>          <dbl>   <dbl>  <dbl>  <dbl>    <dbl>
##  1  0.635        0.222 G              0.683 -0.0486 0.0836  0.359 0.000638
##  2  1.69       -52.8   G              1.45   0.242  0.690   0.346 1.15    
##  3  0.429       10.8   G              0.530 -0.102  0.114   0.358 0.00408 
##  4  0.705        8.52  G              0.564  0.141  0.103   0.357 0.00689 
##  5  0.439       -1.52  G              0.708 -0.269  0.0834  0.353 0.0196  
##  6  0.543        4.88  G              0.616 -0.0732 0.0907  0.359 0.00160 
##  7  0.776        0.970 G              0.672  0.103  0.0841  0.358 0.00289 
##  8  1.10        15.7   G              0.461  0.641  0.144   0.324 0.220   
##  9  0.769      -13.6   G              0.882 -0.113  0.120   0.358 0.00532 
## 10  0.755        3.79  G              0.632  0.123  0.0881  0.358 0.00437 
## # ... with 14 more rows, and 1 more variable: .std.resid <dbl>
…
