Exp2-Analysis
…
set.seed(1298)

Import Data

data <- read_csv("parsedrawresultsexp2.csv", col_types = "icffffiiiiiififc")
data <- data[,2:ncol(data)]
data <- data %>% filter(age != 99) #remove amy test from dataset
data

## # A tibble: 721 x 15
##    subject condition vignetteType vignetteNumber Start100 dummyConfidence
##    <chr>   <fct>     <fct>        <fct>          <fct>              <int>
##  1 vn0k35~ G4x       G            4              x                      3
##  2 du0b35~ G10y      G            10             y                      3
##  3 chm535~ G3y       G            3              y                      3
##  4 akzh35~ G9x       G            9              x                      4
##  5 7nsi35~ L7x       L            7              x                      3
##  6 3pix35~ L7y       L            7              y                      4
##  7 zxea35~ G4x       G            4              x                      4
##  8 h7mr35~ L3x       L            3              x                      3
##  9 1q3s35~ L4x       L            4              x                      3
## 10 pamy35~ G6x       G            6              x                      4
## # ... with 711 more rows, and 9 more variables: dummyXprob <int>,
## #   dummyYprob <int>, vignetteConfidence <int>, vignetteXprob <int>,
## #   vignetteYprob <int>, gender <fct>, age <int>, postQuestion1 <fct>,
## #   postQuestion2 <chr>

#load previous data
load("exp1d.Rda")

# get means for each vignette
meanAAdata <- exp1d %>% group_by(vignetteType, vignetteNumber) %>% summarise(meanAA = mean(vignetteAnswer))
meanAAdata

## # A tibble: 24 x 3
## # Groups:   vignetteType [2]
##    vignetteType vignetteNumber  meanAA
##    <fct>        <fct>            <dbl>
##  1 L            3               0.512 
##  2 L            8              -0.466 
##  3 L            11              0.610 
##  4 L            6               0.694 
##  5 L            9               0.0222
##  6 L            7               0.75  
##  7 L            1               0.559 
##  8 L            10              0.388 
##  9 L            4               0.385 
## 10 L            2               0.490 
## # ... with 14 more rows
…
exclude participants

#check whether observations fail instruction checks
instr_fail <- data$postQuestion1 == "incorrect" | data$dummyXprob <= 50

#remove data from main dataset and save for possible later analysis (was a particular question more confusing etc?)
d_removed <- data[instr_fail,]
d_pass <- data[!instr_fail,]

d_removed

## # A tibble: 38 x 18
##    subject condition vignetteType vignetteNumber Start100 dummyConfidence
##    <chr>   <fct>     <fct>        <fct>          <fct>              <int>
##  1 m8jp35~ G3y       G            3              y                      4
##  2 47qy35~ L3x       L            3              x                      3
##  3 3apq35~ L10y      L            10             y                      4
##  4 y0cr35~ L11x      L            11             x                      3
##  5 3a5e35~ L11y      L            11             y                      4
##  6 3kh635~ G4y       G            4              y                      3
##  7 td2535~ L1y       L            1              y                      2
##  8 xve835~ G12y      G            12             y                      4
##  9 v8cd35~ L3x       L            3              x                      4
## 10 sbf835~ L4y       L            4              y                      2
## # ... with 28 more rows, and 12 more variables: dummyXprob <int>,
## #   dummyYprob <int>, vignetteConfidence <int>, vignetteXprob <int>,
## #   vignetteYprob <int>, gender <fct>, age <int>, postQuestion1 <fct>,
## #   postQuestion2 <chr>, oddsFav <dbl>, fav_minus_unfav <int>,
## #   vignette <fct>

d_pass

## # A tibble: 683 x 18
##    subject condition vignetteType vignetteNumber Start100 dummyConfidence
##    <chr>   <fct>     <fct>        <fct>          <fct>              <int>
##  1 vn0k35~ G4x       G            4              x                      3
##  2 du0b35~ G10y      G            10             y                      3
##  3 chm535~ G3y       G            3              y                      3
##  4 akzh35~ G9x       G            9              x                      4
##  5 7nsi35~ L7x       L            7              x                      3
##  6 3pix35~ L7y       L            7              y                      4
##  7 zxea35~ G4x       G            4              x                      4
##  8 h7mr35~ L3x       L            3              x                      3
##  9 1q3s35~ L4x       L            4              x                      3
## 10 pamy35~ G6x       G            6              x                      4
## # ... with 673 more rows, and 12 more variables: dummyXprob <int>,
## #   dummyYprob <int>, vignetteConfidence <int>, vignetteXprob <int>,
## #   vignetteYprob <int>, gender <fct>, age <int>, postQuestion1 <fct>,
## #   postQuestion2 <chr>, oddsFav <dbl>, fav_minus_unfav <int>,
## #   vignette <fct>

Get final dataset for regression models.

## summarise data to get mean Odds and meanCR
d <- d_pass %>% group_by(vignetteType, vignetteNumber, vignette) %>% summarise(meanOddsFav = mean(oddsFav),
                                                                               meanpercdiff = mean(fav_minus_unfav),
                                                                                meanCR = mean(vignetteConfidence))
d <- left_join(d, meanAAdata, by = c("vignetteType", "vignetteNumber"))

#reorder
d <- d[c(1, 3:7)]
d

## # A tibble: 24 x 6
##    vignetteType vignette meanOddsFav meanpercdiff meanCR meanAA
##    <chr>        <fct>          <dbl>        <dbl>  <dbl>  <dbl>
##  1 G            G4             1.06         0.222   1.89  0.635
##  2 G            G10            3.15       -52.8     3.17  1.69 
##  3 G            G3           Inf           10.8     2.53  0.429
##  4 G            G9           Inf            8.52    3.22  0.705
##  5 G            G7             0.988       -1.52    3     0.439
##  6 G            G6           Inf            0.970   3.12  0.776
##  7 G            G1             3.50        15.7     3.04  1.10 
##  8 G            G8             0.854      -13.6     3.16  0.769
##  9 G            G11            2.72         3.79    3.25  0.755
## 10 G            G5           Inf            4.88    3.15  0.543
## # ... with 14 more rows
…
.

d_prereg <- d_pass[d_pass$fav_minus_unfav != 100 & d_pass$fav_minus_unfav != 100,] # cause this gives undefined odds or 0 odds (depending on which is numerator)

d.pr <- d_prereg %>% group_by(vignetteType, vignetteNumber, vignette) %>% summarise(meanOddsFav = mean(oddsFav),
                                                                               meanpercdiff = mean(fav_minus_unfav),
                                                                                meanCR = mean(vignetteConfidence))
d.pr <- left_join(d.pr, meanAAdata, by = c("vignetteType", "vignetteNumber"))

#reorder
d.pr <- d.pr[c(1, 3:7)]
d.pr

## # A tibble: 24 x 6
##    vignetteType vignette meanOddsFav meanpercdiff meanCR meanAA
##    <chr>        <fct>          <dbl>        <dbl>  <dbl>  <dbl>
##  1 G            G4             1.06         0.222   1.89  0.635
##  2 G            G10            3.15       -52.8     3.17  1.69 
##  3 G            G3             1.29         3.2     2.46  0.429
##  4 G            G9             1.05         1.2     3.16  0.705
##  5 G            G7             0.988       -1.52    3     0.439
##  6 G            G6             1.57        -2.12    3.09  0.776
##  7 G            G1             3.50        15.7     3.04  1.10 
##  8 G            G8             0.854      -13.6     3.16  0.769
##  9 G            G11            2.72         3.79    3.25  0.755
## 10 G            G5             1.30         2       3.12  0.543
## # ... with 14 more rows
…
